\relax 
\providecommand*{\memsetcounter}[2]{}
\catcode`"\active
\select@language{brazilian}
\@writefile{toc}{\select@language{brazilian}}
\@writefile{lof}{\select@language{brazilian}}
\@writefile{lot}{\select@language{brazilian}}
\ttl@finishall
\@input{PUBLICIDADE.aux}
\memsetcounter{lastsheet}{70}
\memsetcounter{lastpage}{70}
