\relax 
\@setckpt{PUBLICIDADE}{
\setcounter{page}{70}
\setcounter{equation}{0}
\setcounter{enumi}{155}
\setcounter{enumii}{0}
\setcounter{enumiii}{0}
\setcounter{enumiv}{0}
\setcounter{footnote}{8}
\setcounter{mpfootnote}{0}
\setcounter{@memmarkcntra}{0}
\setcounter{storedpagenumber}{1}
\setcounter{book}{0}
\setcounter{part}{0}
\setcounter{chapter}{0}
\setcounter{section}{0}
\setcounter{subsection}{0}
\setcounter{subsubsection}{0}
\setcounter{paragraph}{0}
\setcounter{subparagraph}{0}
\setcounter{@ppsavesec}{0}
\setcounter{@ppsaveapp}{0}
\setcounter{vslineno}{0}
\setcounter{poemline}{0}
\setcounter{modulo@vs}{0}
\setcounter{memfvsline}{0}
\setcounter{verse}{0}
\setcounter{chrsinstr}{0}
\setcounter{poem}{0}
\setcounter{newflo@tctr}{4}
\setcounter{@contsubnum}{0}
\setcounter{maxsecnumdepth}{1}
\setcounter{sidefootnote}{0}
\setcounter{pagenote}{0}
\setcounter{pagenoteshadow}{0}
\setcounter{memfbvline}{0}
\setcounter{bvlinectr}{0}
\setcounter{cp@cntr}{0}
\setcounter{ism@mctr}{0}
\setcounter{xsm@mctr}{0}
\setcounter{csm@mctr}{0}
\setcounter{ksm@mctr}{0}
\setcounter{xksm@mctr}{0}
\setcounter{cksm@mctr}{0}
\setcounter{msm@mctr}{0}
\setcounter{xmsm@mctr}{0}
\setcounter{cmsm@mctr}{0}
\setcounter{bsm@mctr}{0}
\setcounter{workm@mctr}{0}
\setcounter{sheetsequence}{70}
\setcounter{lastsheet}{70}
\setcounter{lastpage}{70}
\setcounter{figure}{0}
\setcounter{lofdepth}{1}
\setcounter{table}{0}
\setcounter{lotdepth}{1}
\setcounter{DefaultLines}{2}
\setcounter{L@lines}{0}
\setcounter{lips@count}{0}
\setcounter{pp@next@reset}{0}
\setcounter{@sectionNumCenter}{0}
\setcounter{ContinuedFloat}{0}
\setcounter{PWSTtable}{0}
\setcounter{firstlinenum}{1000}
\setcounter{linenumincrement}{1000}
\setcounter{firstsublinenum}{5}
\setcounter{sublinenumincrement}{5}
\setcounter{pstart}{1}
\setcounter{ballast}{0}
\setcounter{footnoteA}{0}
\setcounter{footnoteB}{0}
\setcounter{footnoteC}{0}
\setcounter{footnoteD}{0}
\setcounter{footnoteE}{0}
\setcounter{footnoteZ}{0}
\setcounter{line}{0}
\setcounter{subline}{0}
\setcounter{labidx}{0}
\setcounter{stanzaindentsrepetition}{0}
\setcounter{addcolcount}{0}
\setcounter{chapterR}{0}
\setcounter{sectionR}{0}
\setcounter{subsectionR}{0}
\setcounter{subsubsectionR}{0}
\setcounter{firstlinenumR}{1000}
\setcounter{linenumincrementR}{1000}
\setcounter{firstsublinenumR}{5}
\setcounter{sublinenumincrementR}{5}
\setcounter{pstartL}{0}
\setcounter{pstartLold}{0}
\setcounter{pstartR}{0}
\setcounter{pstartRold}{0}
}
